{
  "title": "Columns",
  "type": "object",
  "id": "columns",
  "additionalItems": false,
  "properties": {
    "template_is_columns": {
      "type": "boolean",
      "default": true,
      "options": { "hidden": true }
    },
    "columns": {
      "type": "array",
      "title": "Columns",
      "items": {
        "type": "object",
        "title": "Column",
        "properties": {
            "image": {
              "title": "Image",
              "type": "string"
            },
            "heading": {
              "title": "Heading",
              "type": "string"
            },
            "content": {
              "title": "Content",
              "type": "string",
              "format": "html",
              "options": {
                "wysiwyg": true
              }
            },
            "link": {
              "title": "Link",
              "type": "string"
            },
            "button_text": {
              "title": "Button text",
              "type": "string"
            }
        }
      }
    }
  }
}
