{
  "title": "Food Menu",
  "type": "object",
  "id": "food_menu",
  "additionalItems": false,
  "properties": {
    "template_is_food_menu": {
      "type": "boolean",
      "default": true,
      "options": { "hidden": true }
    },
    "columns": {
      "type": "array",
      "title": "Menu items",
      "items": {
        "type": "object",
        "title": "Item",
        "properties": {
            "heading": {
              "title": "Heading",
              "type": "string"
            },
            "content": {
              "title": "Content",
              "type": "string",
              "format": "html",
              "options": {
                "wysiwyg": true
              }
            },
            "price": {
              "title": "Price",
              "type": "string"
            }
        }
      }
    }
  }
}
