{
  "title": "Hero image",
  "type": "object",
  "id": "mini_hero",
  "additionalItems": false,
  "properties": {
    "template_is_mini_hero": {
      "type": "boolean",
      "default": true,
      "options": { "hidden": true }
    },
    "content": {
      "title": "Content",
      "type": "string",
      "format": "html",
      "options": {
        "wysiwyg": true
      }
    },
    "button_text": {
      "title": "Button text",
      "type": "string"
    },
    "id_galleries": {
      "title": "Button gallery",
      "type": "string"
    },
    "image": {
      "title": "Image",
      "type": "string"
    }
  }
}
